/* XPM */
static char *load_1[] = {
"8 24 2 1",
"! c grey90",
"  c white",
"        ",
"        ",
"        ",
"        ",
"        ",
"        ",
"        ",
"        ",
"        ",
"        ",
"        ",
"        ",
"        ",
"        ",
"        ",
"        ",
"!!!!!!!!",
"!!!!!!!!",
"!!!!!!!!",
"        ",
"        ",
"        ",
"        ",
"        "
};
